%YAML 1.1
%TAG !u! tag:unity3d.com,2011:
--- !u!114 &11400000
MonoBehaviour:
  m_ObjectHideFlags: 0
  m_CorrespondingSourceObject: {fileID: 0}
  m_PrefabInstance: {fileID: 0}
  m_PrefabAsset: {fileID: 0}
  m_GameObject: {fileID: 0}
  m_Enabled: 1
  m_EditorHideFlags: 0
  m_Script: {fileID: 11500000, guid: ccc02c1005fb7b34785870366ed047e1, type: 3}
  m_Name: Level1
  m_EditorClassIdentifier: 
  levelid1: 1
  levelid2: 2
  stage1: {fileID: 7640828935351563140, guid: 841ce91c7c307434eb98d797b626a46c, type: 3}
  stage2: {fileID: 7640828935351563140, guid: 7200c5c56a6b8604d92a4f613d859a80, type: 3}
  tableColor: {r: 0.7924528, g: 0.13830544, b: 0.5222637, a: 0}
  borderColor: {r: 0.43182206, g: 0.0744927, b: 0.5849056, a: 0}
  loseColor: {r: 1, g: 0.9964248, b: 0, a: 0}
